\relax 
\providecommand\hyper@newdestlabel[2]{}
\providecommand\HyperFirstAtBeginDocument{\AtBeginDocument}
\HyperFirstAtBeginDocument{\ifx\hyper@anchor\@undefined
\global\let\oldcontentsline\contentsline
\gdef\contentsline#1#2#3#4{\oldcontentsline{#1}{#2}{#3}}
\global\let\oldnewlabel\newlabel
\gdef\newlabel#1#2{\newlabelxx{#1}#2}
\gdef\newlabelxx#1#2#3#4#5#6{\oldnewlabel{#1}{{#2}{#3}}}
\AtEndDocument{\ifx\hyper@anchor\@undefined
\let\contentsline\oldcontentsline
\let\newlabel\oldnewlabel
\fi}
\fi}
\global\let\hyper@last\relax 
\gdef\HyperFirstAtBeginDocument#1{#1}
\providecommand\HyField@AuxAddToFields[1]{}
\providecommand\HyField@AuxAddToCoFields[2]{}
\@writefile{toc}{\contentsline {chapter}{\numberline {1}Wst\IeC {\k e}p}{3}{chapter.1}}
\@writefile{lof}{\addvspace {10\p@ }}
\@writefile{lot}{\addvspace {10\p@ }}
\@writefile{toc}{\contentsline {section}{\numberline {1.1}Cel projektu}{3}{section.1.1}}
\@writefile{toc}{\contentsline {section}{\numberline {1.2}Opis projektu}{3}{section.1.2}}
\@writefile{toc}{\contentsline {chapter}{\numberline {2}Wykorzystane technologie}{4}{chapter.2}}
\@writefile{lof}{\addvspace {10\p@ }}
\@writefile{lot}{\addvspace {10\p@ }}
\@writefile{toc}{\contentsline {section}{\numberline {2.1}RDF, OWL}{4}{section.2.1}}
\@writefile{toc}{\contentsline {section}{\numberline {2.2}REST}{4}{section.2.2}}
\@writefile{toc}{\contentsline {section}{\numberline {2.3}JSON}{4}{section.2.3}}
\@writefile{toc}{\contentsline {section}{\numberline {2.4}JavaScript}{4}{section.2.4}}
\@writefile{toc}{\contentsline {subsection}{\numberline {2.4.1}jQuery}{5}{subsection.2.4.1}}
\@writefile{toc}{\contentsline {subsection}{\numberline {2.4.2}Knockout.js}{5}{subsection.2.4.2}}
\@writefile{toc}{\contentsline {subsection}{\numberline {2.4.3}Inne biblioteki JS}{5}{subsection.2.4.3}}
\@writefile{toc}{\contentsline {section}{\numberline {2.5}Bootstrap}{5}{section.2.5}}
\@writefile{toc}{\contentsline {section}{\numberline {2.6}SASS}{5}{section.2.6}}
\@writefile{toc}{\contentsline {section}{\numberline {2.7}Ruby}{6}{section.2.7}}
\@writefile{toc}{\contentsline {section}{\numberline {2.8}Rails}{6}{section.2.8}}
\@writefile{toc}{\contentsline {subsection}{\numberline {2.8.1}Devise}{6}{subsection.2.8.1}}
\@writefile{toc}{\contentsline {subsection}{\numberline {2.8.2}CanCan}{6}{subsection.2.8.2}}
\@writefile{toc}{\contentsline {subsection}{\numberline {2.8.3}Sparql}{6}{subsection.2.8.3}}
\newlabel{section:lib_sparql}{{2.8.3}{6}{Sparql}{subsection.2.8.3}{}}
\@writefile{toc}{\contentsline {subsection}{\numberline {2.8.4}GIT}{7}{subsection.2.8.4}}
\citation{kbbenchmark}
\@writefile{toc}{\contentsline {chapter}{\numberline {3}U\IeC {\.z}yte oprogramowanie}{8}{chapter.3}}
\@writefile{lof}{\addvspace {10\p@ }}
\@writefile{lot}{\addvspace {10\p@ }}
\@writefile{toc}{\contentsline {section}{\numberline {3.1}Apache}{8}{section.3.1}}
\@writefile{toc}{\contentsline {section}{\numberline {3.2}4store}{8}{section.3.2}}
\@writefile{toc}{\contentsline {section}{\numberline {3.3}MySQL}{8}{section.3.3}}
\@writefile{toc}{\contentsline {section}{\numberline {3.4}Ubuntu Linux}{8}{section.3.4}}
\@writefile{toc}{\contentsline {section}{\numberline {3.5}VMWare Player}{9}{section.3.5}}
\@writefile{toc}{\contentsline {section}{\numberline {3.6}Netbeans}{9}{section.3.6}}
\@writefile{toc}{\contentsline {section}{\numberline {3.7}TopBraid Composer}{9}{section.3.7}}
\@writefile{toc}{\contentsline {section}{\numberline {3.8}Google Chrome}{9}{section.3.8}}
\@writefile{toc}{\contentsline {section}{\numberline {3.9}TeXstudio}{10}{section.3.9}}
\@writefile{toc}{\contentsline {section}{\numberline {3.10}Gephi}{10}{section.3.10}}
\@writefile{toc}{\contentsline {section}{\numberline {3.11}Visual Paradigm}{10}{section.3.11}}
\@writefile{toc}{\contentsline {section}{\numberline {3.12}DIA}{10}{section.3.12}}
\@writefile{toc}{\contentsline {chapter}{\numberline {4}Opis projektu}{11}{chapter.4}}
\@writefile{lof}{\addvspace {10\p@ }}
\@writefile{lot}{\addvspace {10\p@ }}
\@writefile{toc}{\contentsline {section}{\numberline {4.1}Przypadki u\IeC {\.z}ycia}{11}{section.4.1}}
\@writefile{lof}{\contentsline {figure}{\numberline {4.1}{\ignorespaces Przypadek u\IeC {\.z}ycia: lista s\IeC {\l }\IeC {\'o}wek}}{11}{figure.4.1}}
\newlabel{img:pu-lista}{{4.1}{11}{Przypadek użycia: lista słówek}{figure.4.1}{}}
\@writefile{lof}{\contentsline {figure}{\numberline {4.2}{\ignorespaces Przypadek u\IeC {\.z}ycia: profil u\IeC {\.z}ytkownika}}{12}{figure.4.2}}
\newlabel{img:pu-profil}{{4.2}{12}{Przypadek użycia: profil użytkownika}{figure.4.2}{}}
\@writefile{lof}{\contentsline {figure}{\numberline {4.3}{\ignorespaces Przypadek u\IeC {\.z}ycia: konto u\IeC {\.z}ytkownika}}{12}{figure.4.3}}
\newlabel{img:pu-konto}{{4.3}{12}{Przypadek użycia: konto użytkownika}{figure.4.3}{}}
\@writefile{lof}{\contentsline {figure}{\numberline {4.4}{\ignorespaces Przypadek u\IeC {\.z}ycia: test ze s\IeC {\l }\IeC {\'o}wek}}{13}{figure.4.4}}
\newlabel{img:pu-test}{{4.4}{13}{Przypadek użycia: test ze słówek}{figure.4.4}{}}
\@writefile{toc}{\contentsline {section}{\numberline {4.2}Komponenty systemu}{13}{section.4.2}}
\@writefile{lof}{\contentsline {figure}{\numberline {4.5}{\ignorespaces Diagram komponent\IeC {\'o}w systemu}}{14}{figure.4.5}}
\newlabel{img:komponenty}{{4.5}{14}{Diagram komponentów systemu}{figure.4.5}{}}
\@writefile{toc}{\contentsline {section}{\numberline {4.3}Opis sieci semantycznej}{14}{section.4.3}}
\@writefile{toc}{\contentsline {subsection}{\numberline {4.3.1}Ontologia}{14}{subsection.4.3.1}}
\@writefile{lof}{\contentsline {figure}{\numberline {4.6}{\ignorespaces Schemat ontologii systemu \textit  {Semvoc}}}{15}{figure.4.6}}
\newlabel{img:voc.owl}{{4.6}{15}{Schemat ontologii systemu \textit {Semvoc}}{figure.4.6}{}}
\@writefile{toc}{\contentsline {subsection}{\numberline {4.3.2}Okre\IeC {\'s}lanie podobie\IeC {\'n}stwa s\IeC {\l }\IeC {\'o}wek}{15}{subsection.4.3.2}}
\newlabel{section:wzory}{{4.3.2}{15}{Określanie podobieństwa słówek}{subsection.4.3.2}{}}
\@writefile{toc}{\contentsline {section}{\numberline {4.4}API systemu}{16}{section.4.4}}
\@writefile{toc}{\contentsline {subsection}{\numberline {4.4.1}Zapytania \textit  {SPARQL}}{17}{subsection.4.4.1}}
\@writefile{toc}{\contentsline {subsection}{\numberline {4.4.2}Predefiniowane komendy}{17}{subsection.4.4.2}}
\@writefile{toc}{\contentsline {chapter}{\numberline {5}Szczeg\IeC {\'o}\IeC {\l }y implementacji}{18}{chapter.5}}
\@writefile{lof}{\addvspace {10\p@ }}
\@writefile{lot}{\addvspace {10\p@ }}
\@writefile{toc}{\contentsline {section}{\numberline {5.1}Operacje przeprowadzane w systemie}{18}{section.5.1}}
\@writefile{toc}{\contentsline {subsection}{\numberline {5.1.1}Pobieranie danych z bazy wiedzy}{18}{subsection.5.1.1}}
\@writefile{lof}{\contentsline {figure}{\numberline {5.1}{\ignorespaces Diagram sekwencji przedstawiaj\IeC {\k a}cy og\IeC {\'o}lny schemat pobierania danych z bazy wiedzy}}{19}{figure.5.1}}
\newlabel{img:sekw_pobieranie}{{5.1}{19}{Diagram sekwencji przedstawiający ogólny schemat pobierania danych z bazy wiedzy}{figure.5.1}{}}
\@writefile{toc}{\contentsline {subsection}{\numberline {5.1.2}Przeprowadzanie testu ze s\IeC {\l }\IeC {\'o}wek}{19}{subsection.5.1.2}}
\@writefile{lof}{\contentsline {figure}{\numberline {5.2}{\ignorespaces Diagram sekwencji przedstawiaj\IeC {\k a}cy schemat przeprowadzania test\IeC {\'o}w ze s\IeC {\l }\IeC {\'o}wek}}{20}{figure.5.2}}
\newlabel{img:sekw_test}{{5.2}{20}{Diagram sekwencji przedstawiający schemat przeprowadzania testów ze słówek}{figure.5.2}{}}
\@writefile{toc}{\contentsline {subsection}{\numberline {5.1.3}Pobieranie danych z bazy wiedzy na potrzeby API systemu}{20}{subsection.5.1.3}}
\@writefile{lof}{\contentsline {figure}{\numberline {5.3}{\ignorespaces Diagram sekwencji przedstawiaj\IeC {\k a}cy schemat pobierania danych z bazy wiedzy na potrzeby API systemu}}{21}{figure.5.3}}
\newlabel{img:sekw_api}{{5.3}{21}{Diagram sekwencji przedstawiający schemat pobierania danych z bazy wiedzy na potrzeby API systemu}{figure.5.3}{}}
\@writefile{toc}{\contentsline {section}{\numberline {5.2}Lista s\IeC {\l }\IeC {\'o}wek}{21}{section.5.2}}
\@writefile{lof}{\contentsline {figure}{\numberline {5.4}{\ignorespaces Widok listy s\IeC {\l }\IeC {\'o}wek}}{22}{figure.5.4}}
\newlabel{img:semvoc-lista}{{5.4}{22}{Widok listy słówek}{figure.5.4}{}}
\bibcite{kbbenchmark}{1}
